{
	"commentStamp" : "StevenRemot 9/16/2018 13:43",
	"super" : "WAComponent",
	"category" : "Meals",
	"classinstvars" : [ ],
	"pools" : [ ],
	"classvars" : [ ],
	"instvars" : [
		"layout"
	],
	"name" : "MealsPage",
	"type" : "normal"
}